COMPSCIX 415.2 Homework 5
…
There are 46 unique cities.

Which city, month and year had the highest number of sales?

txhousing %>%
  group_by(city, year, month) %>%
    summarise(
      max_sales = max(sales)
    ) %>%
  arrange(desc(max_sales))

## # A tibble: 8,602 x 4
## # Groups:   city, year [736]
##    city     year month max_sales
##    <chr>   <int> <int>     <dbl>
##  1 Houston  2015     7      8945
##  2 Houston  2006     6      8628
##  3 Houston  2013     7      8468
##  4 Houston  2015     6      8449
##  5 Houston  2013     5      8439
##  6 Houston  2014     6      8391
##  7 Houston  2014     7      8391
##  8 Houston  2014     8      8167
##  9 Houston  2013     8      8155
## 10 Houston  2006     5      8040
## #  with 8,592 more rows
…
What proportion of sales is missing for each city?

txhousing %>%
  group_by(city) %>%
    summarise(
      count = n(),
      missing = count(is.na(sales)),
      prop_missing = missing / count
    )

## # A tibble: 46 x 4
##    city                  count missing prop_missing
##    <chr>                 <int>   <int>        <dbl>
##  1 Abilene                 187       0       0     
##  2 Amarillo                187       0       0     
##  3 Arlington               187       0       0     
##  4 Austin                  187       0       0     
##  5 Bay Area                187       0       0     
##  6 Beaumont                187       0       0     
##  7 Brazoria County         187      14       0.0749
##  8 Brownsville             187       2       0.0107
##  9 Bryan-College Station   187       0       0     
## 10 Collin County           187       0       0     
## #  with 36 more rows
…
