Homework 7
…
## # A tibble: 1 x 11
##   r.squared adj.r.squared  sigma statistic   p.value    df  logLik    AIC
##       <dbl>         <dbl>  <dbl>     <dbl>     <dbl> <int>   <dbl>  <dbl>
## 1     0.626         0.625 48623.     2437. 2.19e-313     2 -17827. 35659.
## #  with 3 more variables: BIC <dbl>, deviance <dbl>, df.residual <int>

Exercise 4

Now fit a linear regression model using GrLivArea, OverallQual, and Neighborhood as the features. Dont forget to look at data_description.txt to understand what these variables mean. Ask yourself these questions before fitting the model:

diam_mult_lm <- lm(SalePrice ~ GrLivArea + OverallQual + Neighborhood, data = train_data)
tidy(diam_mult_lm)

## # A tibble: 27 x 5
##    term                estimate std.error statistic  p.value
##    <chr>                  <dbl>     <dbl>     <dbl>    <dbl>
##  1 (Intercept)         -34829.   11541.       -3.02 2.59e- 3
##  2 GrLivArea               55.6      2.50     22.2  2.38e-94
##  3 OverallQual          20951.    1162.       18.0  1.24e-65
##  4 NeighborhoodBlueste -30753.   27697.       -1.11 2.67e- 1
##  5 NeighborhoodBrDale  -43359.   12979.       -3.34 8.57e- 4
##  6 NeighborhoodBrkSide -13025.   10450.       -1.25 2.13e- 1
##  7 NeighborhoodClearCr  24576.   11570.        2.12 3.38e- 2
##  8 NeighborhoodCollgCr  11414.    9497.        1.20 2.30e- 1
##  9 NeighborhoodCrawfor  14444.   10502.        1.38 1.69e- 1
## 10 NeighborhoodEdwards -17843.    9986.       -1.79 7.42e- 2
## #  with 17 more rows
…
